Class 4
…
Here, I’ve calculated the bmi for the different starwars characters. I first mutated the height variable by going from cm to m, and then created the new column “bmi”.

A useful helper function for mutate() is ifelse() which is a shorthand for the if-else control flow (Section 1.3.4.1). Here is an example:

df.starwars %>% 
  mutate(height_categorical = ifelse(height > median(height, na.rm = T), 'tall', 'short')) %>% 
  select(name, contains("height"))
#> # A tibble: 87 x 3
#>    name               height height_categorical
#>    <chr>               <int> <chr>             
#>  1 Luke Skywalker        172 short             
#>  2 C-3PO                 167 short             
#>  3 R2-D2                  96 short             
#>  4 Darth Vader           202 tall              
#>  5 Leia Organa           150 short             
#>  6 Owen Lars             178 short             
#>  7 Beru Whitesun lars    165 short             
#>  8 R5-D4                  97 short             
#>  9 Biggs Darklighter     183 tall              
#> 10 Obi-Wan Kenobi        182 tall              
#> # ... with 77 more rows

ifelse() works in the following way: we first specify the condition, then what should be returned if the condition is true, and finally what should be returned otherwise. The more verbose version of the statement above would be: ifelse(test = height > median(height, na.rm = T), yes = 'tall', no = 'short')

There are a number of variants of the mutate() function. Let’s take a look at them.

1.5.4.1 mutate_at()

With mutate_at(), we can mutate several columns at the same time.

df.starwars %>% 
  mutate_at(vars(height, mass, birth_year), funs(scale))
#> # A tibble: 87 x 13
#>    name   height    mass hair_color skin_color eye_color birth_year gender
#>    <chr>   <dbl>   <dbl> <chr>      <chr>      <chr>          <dbl> <chr> 
#>  1 Luke… -0.0678 -0.120  blond      fair       blue          -0.443 male  
#>  2 C-3PO -0.212  -0.132  <NA>       gold       yellow         0.158 <NA>  
#>  3 R2-D2 -2.25   -0.385  <NA>       white, bl… red           -0.353 <NA>  
#>  4 Dart…  0.795   0.228  none       white      yellow        -0.295 male  
#>  5 Leia… -0.701  -0.285  brown      light      brown         -0.443 female
#>  6 Owen…  0.105   0.134  brown, gr… light      blue          -0.230 male  
#>  7 Beru… -0.269  -0.132  brown      light      blue          -0.262 female
#>  8 R5-D4 -2.22   -0.385  <NA>       white, red red           NA     <NA>  
#>  9 Bigg…  0.249  -0.0786 black      light      brown         -0.411 male  
#> 10 Obi-…  0.220  -0.120  auburn, w… fair       blue-gray     -0.198 male  
#> # ... with 77 more rows, and 5 more variables: homeworld <chr>,
#> #   species <chr>, films <list>, vehicles <list>, starships <list>
…
their name, “mean”

the function itself, mean

a call to the function with . as a dummy argument, mean(.)

Within vars(), we can use the same helper functions for selecting columns that we’ve seen above for select().

We can also use names to create new columns:

df.starwars %>% 
  mutate_at(vars(height, mass, birth_year), funs(z = scale)) %>% 
  select(name, contains("height"), contains("mass"), contains("birth_year"))
#> # A tibble: 87 x 7
#>    name               height height_z  mass  mass_z birth_year birth_year_z
#>    <chr>               <int>    <dbl> <dbl>   <dbl>      <dbl>        <dbl>
#>  1 Luke Skywalker        172  -0.0678    77 -0.120        19         -0.443
#>  2 C-3PO                 167  -0.212     75 -0.132       112          0.158
#>  3 R2-D2                  96  -2.25      32 -0.385        33         -0.353
#>  4 Darth Vader           202   0.795    136  0.228        41.9       -0.295
#>  5 Leia Organa           150  -0.701     49 -0.285        19         -0.443
#>  6 Owen Lars             178   0.105    120  0.134        52         -0.230
#>  7 Beru Whitesun lars    165  -0.269     75 -0.132        47         -0.262
#>  8 R5-D4                  97  -2.22      32 -0.385        NA         NA    
#>  9 Biggs Darklighter     183   0.249     84 -0.0786       24         -0.411
#> 10 Obi-Wan Kenobi        182   0.220     77 -0.120        57         -0.198
#> # ... with 77 more rows

As we can see, new columns were created with _z added to the end of the column name.

And we can apply several functions at the same time.

df.starwars %>% 
  mutate_at(vars(height, mass, birth_year),
            funs(z = scale,
                 centered = scale(., scale = FALSE))) %>% 
  select(name, contains("height"), contains("mass"), contains("birth_year"))
#> # A tibble: 87 x 10
#>    name  height height_z height_centered  mass  mass_z mass_centered
#>    <chr>  <int>    <dbl>           <dbl> <dbl>   <dbl>         <dbl>
#>  1 Luke…    172  -0.0678           -2.36    77 -0.120          -20.3
#>  2 C-3PO    167  -0.212            -7.36    75 -0.132          -22.3
#>  3 R2-D2     96  -2.25            -78.4     32 -0.385          -65.3
#>  4 Dart…    202   0.795            27.6    136  0.228           38.7
#>  5 Leia…    150  -0.701           -24.4     49 -0.285          -48.3
#>  6 Owen…    178   0.105             3.64   120  0.134           22.7
#>  7 Beru…    165  -0.269            -9.36    75 -0.132          -22.3
#>  8 R5-D4     97  -2.22            -77.4     32 -0.385          -65.3
#>  9 Bigg…    183   0.249             8.64    84 -0.0786         -13.3
#> 10 Obi-…    182   0.220             7.64    77 -0.120          -20.3
#> # ... with 77 more rows, and 3 more variables: birth_year <dbl>,
#> #   birth_year_z <dbl>, birth_year_centered <dbl>

Here, I’ve created z-scored and centered (i.e. only subtracted the mean but didn’t divide by the standard deviation) versions of the height, mass, and birth_year columns in one go.

1.5.4.2 mutate_all()

mutate_all() is used to mutate all columns in a data frame.

df.starwars %>% 
  select(height, mass) %>%
  mutate_all(funs(as.character)) #transform all columns to characters
#> # A tibble: 87 x 2
#>    height mass 
#>    <chr>  <chr>
#>  1 172    77   
#>  2 167    75   
#>  3 96     32   
#>  4 202    136  
#>  5 150    49   
#>  6 178    120  
#>  7 165    75   
#>  8 97     32   
#>  9 183    84   
#> 10 182    77   
#> # ... with 77 more rows

Here, I’ve selected some columns first, and then changed the mode to character in each of them.

Like we’ve seen with mutate_at(), you can add a name in the mutate_all() function call to make new columns instead of replacing the existing ones.

df.starwars %>% 
  select(height, mass) %>%
  mutate_all(funs(char = as.character)) #make new character columns
#> # A tibble: 87 x 4
#>    height  mass height_char mass_char
#>     <int> <dbl> <chr>       <chr>    
#>  1    172    77 172         77       
#>  2    167    75 167         75       
#>  3     96    32 96          32       
#>  4    202   136 202         136      
#>  5    150    49 150         49       
#>  6    178   120 178         120      
#>  7    165    75 165         75       
#>  8     97    32 97          32       
#>  9    183    84 183         84       
#> 10    182    77 182         77       
#> # ... with 77 more rows

1.5.4.3 mutate_if()

mutate_if() can sometimes come in handy. For example, the following code changes all the numeric columns to character columns:

df.starwars %>% 
  mutate_if(is.numeric, as.character)
#> # A tibble: 87 x 13
#>    name  height mass  hair_color skin_color eye_color birth_year gender
#>    <chr> <chr>  <chr> <chr>      <chr>      <chr>     <chr>      <chr> 
#>  1 Luke… 172    77    blond      fair       blue      19         male  
#>  2 C-3PO 167    75    <NA>       gold       yellow    112        <NA>  
#>  3 R2-D2 96     32    <NA>       white, bl… red       33         <NA>  
#>  4 Dart… 202    136   none       white      yellow    41.9       male  
#>  5 Leia… 150    49    brown      light      brown     19         female
#>  6 Owen… 178    120   brown, gr… light      blue      52         male  
#>  7 Beru… 165    75    brown      light      blue      47         female
#>  8 R5-D4 97     32    <NA>       white, red red       <NA>       <NA>  
#>  9 Bigg… 183    84    black      light      brown     24         male  
#> 10 Obi-… 182    77    auburn, w… fair       blue-gray 57         male  
#> # ... with 77 more rows, and 5 more variables: homeworld <chr>,
#> #   species <chr>, films <list>, vehicles <list>, starships <list>
…
1.5.5 arrange()

arrange() allows us to sort the values in a data frame by one or more column entries.

df.starwars %>% 
  arrange(gender, desc(height))
#> # A tibble: 87 x 13
#>    name  height  mass hair_color skin_color eye_color birth_year gender
#>    <chr>  <int> <dbl> <chr>      <chr>      <chr>          <dbl> <chr> 
#>  1 Taun…    213  NA   none       grey       black             NA female
#>  2 Adi …    184  50   none       dark       blue              NA female
#>  3 Ayla…    178  55   none       blue       hazel             48 female
#>  4 Shaa…    178  57   none       red, blue… black             NA female
#>  5 Sly …    178  48   none       pale       white             NA female
#>  6 Lumi…    170  56.2 black      yellow     blue              58 female
#>  7 Zam …    168  55   blonde     fair, gre… yellow            NA female
#>  8 Joca…    167  NA   white      fair       blue              NA female
#>  9 Barr…    166  50   black      yellow     blue              40 female
#> 10 Beru…    165  75   brown      light      blue              47 female
#> # ... with 77 more rows, and 5 more variables: homeworld <chr>,
#> #   species <chr>, films <list>, vehicles <list>, starships <list>
…
