Class 5
…
Here, I computed the mean height, the maximum height, and the total number of observations (using the function n()).
Let’s say we wanted to get a quick sense for how tall starwars characters from different species are. To do that, we combine grouping with summarizing:

df.starwars %>% 
  group_by(species) %>% 
  summarize(height_mean = mean(height, na.rm = T))
#> # A tibble: 38 x 2
#>    species   height_mean
#>    <chr>           <dbl>
#>  1 Aleena            79 
#>  2 Besalisk         198 
#>  3 Cerean           198 
#>  4 Chagrian         196 
#>  5 Clawdite         168 
#>  6 Droid            140 
#>  7 Dug              112 
#>  8 Ewok              88 
#>  9 Geonosian        183 
#> 10 Gungan           209.
#> # ... with 28 more rows

I’ve first used group_by() to group our data frame by the different species, and then used summarize() to calculate the mean height of each species.

It would also be useful to know how many observations there are in each group.

df.starwars %>% 
  group_by(species) %>% # group by species
  summarize(height_mean = mean(height, na.rm = T), # calculate mean height
            group_size = n()) %>% # number of observations in each group
  arrange(desc(group_size)) # arrange by group size in descending order 
#> # A tibble: 38 x 3
#>    species  height_mean group_size
#>    <chr>          <dbl>      <int>
#>  1 Human           177.         35
#>  2 Droid           140           5
#>  3 <NA>            160           5
#>  4 Gungan          209.          3
#>  5 Kaminoan        221           2
#>  6 Mirialan        168           2
#>  7 Twi'lek         179           2
#>  8 Wookiee         231           2
#>  9 Zabrak          173           2
#> 10 Aleena           79           1
#> # ... with 28 more rows
…
