Class 12
…
Coefficients:
            Estimate Std. Error t value Pr(>|t|)    
(Intercept)   9.7715     0.2374  41.165   <2e-16 ***
hand1        -3.8300     0.3357 -11.409   <2e-16 ***
hand2         0.5751     0.3357   1.713   0.0877 .  
---
Signif. codes:  0 '***' 0.001 '**' 0.01 '*' 0.05 '.' 0.1 ' ' 1

Residual standard error: 4.111 on 297 degrees of freedom
Multiple R-squared:  0.3377,    Adjusted R-squared:  0.3332 
F-statistic:  75.7 on 2 and 297 DF,  p-value: < 2.2e-16

# A tibble: 300 x 7
   participant skill  hand  limit balance hand_neutral hand_good
         <int> <fct>  <fct> <fct>   <dbl>        <dbl>     <dbl>
 1           1 expert bad   fixed    4               0         0
 2           2 expert bad   fixed    5.55            0         0
 3           3 expert bad   fixed    9.45            0         0
 4           4 expert bad   fixed    7.19            0         0
 5           5 expert bad   fixed    5.71            0         0
 6           6 expert bad   fixed    5.32            0         0
 7           7 expert bad   fixed    8.52            0         0
 8           8 expert bad   fixed    4.06            0         0
 9           9 expert bad   fixed    4.97            0         0
10          10 expert bad   fixed    6.18            0         0
#  with 290 more rows
…
